Customer Segmentation
…
             Navaneeth Chandran V 

Market Segmentation Report

The KTC company would like to segment their customer base based on their characteristics. The company has data of the customers needed for segmentation. To better improve customer relations.

1. Introduction

The KTC company would like to segment their customer base based on their characteristics.The company has data of the customers needed for segmentation we will use the segmented data to better improve customer relations.

2. Descriptive Mining

Customer group of KTC

# A tibble: 30 × 7
     Age Female Income Married Children  Loan Mortgage
   <dbl>  <dbl>  <dbl>   <dbl>    <dbl> <dbl>    <dbl>
 1    48      1 17546        0        1     0        0
 2    40      0 30085.       1        3     1        1
 3    51      1 16575.       1        0     1        0
 4    23      1 20375.       1        3     0        0
 5    57      1 50576.       1        0     0        0
 6    57      1 37870.       1        2     0        0
 7    22      0  8877.       0        0     0        0
 8    58      0 24947.       1        0     1        0
 9    37      1 25304.       1        2     1        0
10    54      0 24212.       1        2     1        0
# ℹ 20 more rows
…
